<svg width="72" height="72" viewBox="0 0 72 72" fill="none" xmlns="http://www.w3.org/2000/svg">
<path fill-rule="evenodd" clip-rule="evenodd" d="M5.98608 17.9584C5.98608 14.6524 8.66616 11.9723 11.9722 11.9723H59.8613C63.1673 11.9723 65.8474 14.6524 65.8474 17.9584V53.8752C65.8474 57.1813 63.1673 59.8613 59.8613 59.8613H11.9722C8.66617 59.8613 5.98608 57.1813 5.98608 53.8752V17.9584ZM16.5175 17.9584L35.9167 34.9328L55.316 17.9584H16.5175ZM59.8613 21.9355L37.8877 41.1624C36.7592 42.1498 35.0743 42.1498 33.9458 41.1624L11.9722 21.9355V53.8752H59.8613V21.9355Z" fill="white"/>
</svg>
