<svg width="72" height="72" viewBox="0 0 72 72" fill="none" xmlns="http://www.w3.org/2000/svg">
<path fill-rule="evenodd" clip-rule="evenodd" d="M55.6152 41.4937C62.6409 32.4706 62.0064 19.4162 53.7115 11.1213C44.7294 2.13925 30.1666 2.13925 21.1845 11.1213C12.2025 20.1034 12.2025 34.6662 21.1845 43.6482C29.4794 51.9431 42.5338 52.5777 51.557 45.552C51.5959 45.596 51.6364 45.6391 51.6785 45.6812L63.8761 57.8787C64.9989 59.0015 66.8192 59.0015 67.942 57.8787C69.0647 56.756 69.0647 54.9356 67.942 53.8129L55.7444 41.6153C55.7023 41.5732 55.6592 41.5327 55.6152 41.4937ZM49.6456 15.1872C56.3821 21.9237 56.3821 32.8458 49.6456 39.5824C42.909 46.3189 31.9869 46.3189 25.2504 39.5824C18.5139 32.8458 18.5139 21.9237 25.2504 15.1872C31.9869 8.45063 42.909 8.45063 49.6456 15.1872Z" fill="white"/>
</svg>
